"EBV"	"cell"	"X1.00E.03"	"X1.00E.02"	"X1.00E.01"	"X1.00E.00"	"X1.00E.01.1"	"X1.00E.02.1"	"media"
"1"	"no"	"BC3"	514	0	0	0	0	0	0
"2"	"no"	"BC3"	814	19	0	0	0	0	0
"3"	"no"	"BC3"	359	0	0	0	0	0	0
"4"	"no"	"BC3"	167	0	0	0	0	0	0
"5"	"no"	"BC3"	470	49	0	0	0	0	0
"6"	"no"	"BC3"	689	0	0	0	0	0	0
"7"	"yes"	"BC3"	527	130	20	0	0	0	0
"8"	"yes"	"BC3"	515	144	15	0	0	0	0
"9"	"yes"	"BC3"	500	145	18	0	0	0	0
"10"	"yes"	"BC3"	609	200	19	0	0	0	0
"11"	"yes"	"BC3"	637	120	16	0	0	0	0
"12"	"yes"	"BC3"	504	159	10	0	0	0	0
"13"	"yes"	"CRO3"	425	23	17	0	0	0	0
"14"	"yes"	"CRO3"	83	39	25	0	0	0	0
"15"	"yes"	"CRO3"	231	31	18	0	0	0	0
"16"	"yes"	"CRO3"	106	27	15	0	0	0	0
"17"	"yes"	"CRO3"	145	28	20	0	0	0	0
"18"	"yes"	"CRO3"	89	35	16	0	0	0	0
"19"	"no"	"CRO3"	136	10	0	0	0	0	0
"20"	"no"	"CRO3"	185	53	0	0	0	0	0
"21"	"no"	"CRO3"	254	0	0	0	0	0	0
"22"	"no"	"CRO3"	304	0	0	0	0	0	0
"23"	"no"	"CRO3"	457	57	0	0	0	0	0
"24"	"no"	"CRO3"	176	0	0	0	0	0	0
"25"	"yes"	"CRO6"	225	0	12	0	0	0	0
"26"	"yes"	"CRO6"	174	20	0	0	0	0	0
"27"	"yes"	"CRO6"	364	0	16	0	0	0	0
"28"	"yes"	"CRO6"	154	0	14	0	0	0	0
"29"	"yes"	"CRO6"	228	21	0	0	0	0	0
"30"	"yes"	"CRO6"	332	23	0	0	0	0	0
"31"	"no"	"CRO6"	188	0	0	0	0	0	0
"32"	"no"	"CRO6"	173	35	0	0	0	0	0
"33"	"no"	"CRO6"	273	0	0	0	0	0	0
"34"	"no"	"CRO6"	230	0	0	0	0	0	0
"35"	"no"	"CRO6"	71	0	0	0	0	0	0
"36"	"no"	"CRO6"	30	0	0	0	0	0	0
